…
Other scaling:
[`categorize_scale()`](https://github.com/tidycomm/tidycomm/reference/categorize_scale.md),
[`dummify_scale()`](https://github.com/tidycomm/tidycomm/reference/dummify_scale.md),
[`minmax_scale()`](https://github.com/tidycomm/tidycomm/reference/minmax_scale.md),
[`recode_cat_scale()`](https://github.com/tidycomm/tidycomm/reference/recode_cat_scale.md),
[`reverse_scale()`](https://github.com/tidycomm/tidycomm/reference/reverse_scale.md),
[`setna_scale()`](https://github.com/tidycomm/tidycomm/reference/setna_scale.md),
[`z_scale()`](https://github.com/tidycomm/tidycomm/reference/z_scale.md)

## Examples

``` r
WoJ %>% dplyr::select(autonomy_emphasis) %>% center_scale(autonomy_emphasis)
#> # A tibble: 1,200 × 2
#>    autonomy_emphasis autonomy_emphasis_centered
#>  *             <dbl>                      <dbl>
#>  1                 4                    -0.0762
#>  2                 4                    -0.0762
#>  3                 4                    -0.0762
#>  4                 5                     0.924 
#>  5                 4                    -0.0762
#>  6                 4                    -0.0762
#>  7                 4                    -0.0762
#>  8                 3                    -1.08  
#>  9                 5                     0.924 
#> 10                 4                    -0.0762
#> # ℹ 1,190 more rows
WoJ %>% center_scale(autonomy_emphasis, name = "my_centered_variable")
#> # A tibble: 1,200 × 16
#>    country   reach employment temp_contract autonomy_selection autonomy_emphasis
#>  * <fct>     <fct> <chr>      <fct>                      <dbl>             <dbl>
#>  1 Germany   Nati… Full-time  Permanent                      5                 4
#>  2 Germany   Nati… Full-time  Permanent                      3                 4
#>  3 Switzerl… Regi… Full-time  Permanent                      4                 4
#>  4 Switzerl… Local Part-time  Permanent                      4                 5
#>  5 Austria   Nati… Part-time  Permanent                      4                 4
#>  6 Switzerl… Local Freelancer NA                             4                 4
#>  7 Germany   Local Full-time  Permanent                      4                 4
#>  8 Denmark   Nati… Full-time  Permanent                      3                 3
#>  9 Switzerl… Local Full-time  Permanent                      5                 5
#> 10 Denmark   Nati… Full-time  Permanent                      2                 4
#> # ℹ 1,190 more rows
#> # ℹ 10 more variables: ethics_1 <dbl>, ethics_2 <dbl>, ethics_3 <dbl>,
#> #   ethics_4 <dbl>, work_experience <dbl>, trust_parliament <dbl>,
#> #   trust_government <dbl>, trust_parties <dbl>, trust_politicians <dbl>,
#> #   my_centered_variable <dbl>
WoJ %>% center_scale(overwrite = TRUE)
#> NOTE: No variables provided. All numeric columns will be centered.
#> # A tibble: 1,200 × 15
#>    country   reach employment temp_contract autonomy_selection autonomy_emphasis
#>  * <fct>     <fct> <chr>      <fct>                      <dbl>             <dbl>
#>  1 Germany   Nati… Full-time  Permanent                  1.12            -0.0762
#>  2 Germany   Nati… Full-time  Permanent                 -0.876           -0.0762
#>  3 Switzerl… Regi… Full-time  Permanent                  0.124           -0.0762
#>  4 Switzerl… Local Part-time  Permanent                  0.124            0.924 
#>  5 Austria   Nati… Part-time  Permanent                  0.124           -0.0762
#>  6 Switzerl… Local Freelancer NA                         0.124           -0.0762
#>  7 Germany   Local Full-time  Permanent                  0.124           -0.0762
#>  8 Denmark   Nati… Full-time  Permanent                 -0.876           -1.08  
#>  9 Switzerl… Local Full-time  Permanent                  1.12             0.924 
#> 10 Denmark   Nati… Full-time  Permanent                 -1.88            -0.0762
#> # ℹ 1,190 more rows
#> # ℹ 9 more variables: ethics_1 <dbl>, ethics_2 <dbl>, ethics_3 <dbl>,
#> #   ethics_4 <dbl>, work_experience <dbl>, trust_parliament <dbl>,
#> #   trust_government <dbl>, trust_parties <dbl>, trust_politicians <dbl>
…
