…
Other scaling:
[`categorize_scale()`](https://github.com/tidycomm/tidycomm/reference/categorize_scale.md),
[`center_scale()`](https://github.com/tidycomm/tidycomm/reference/center_scale.md),
[`dummify_scale()`](https://github.com/tidycomm/tidycomm/reference/dummify_scale.md),
[`recode_cat_scale()`](https://github.com/tidycomm/tidycomm/reference/recode_cat_scale.md),
[`reverse_scale()`](https://github.com/tidycomm/tidycomm/reference/reverse_scale.md),
[`setna_scale()`](https://github.com/tidycomm/tidycomm/reference/setna_scale.md),
[`z_scale()`](https://github.com/tidycomm/tidycomm/reference/z_scale.md)

## Examples

``` r
WoJ %>% minmax_scale(autonomy_emphasis, change_to_min = 0,
change_to_max = 1)
#> # A tibble: 1,200 × 16
#>    country   reach employment temp_contract autonomy_selection autonomy_emphasis
#>  * <fct>     <fct> <chr>      <fct>                      <dbl>             <dbl>
#>  1 Germany   Nati… Full-time  Permanent                      5                 4
#>  2 Germany   Nati… Full-time  Permanent                      3                 4
#>  3 Switzerl… Regi… Full-time  Permanent                      4                 4
#>  4 Switzerl… Local Part-time  Permanent                      4                 5
#>  5 Austria   Nati… Part-time  Permanent                      4                 4
#>  6 Switzerl… Local Freelancer NA                             4                 4
#>  7 Germany   Local Full-time  Permanent                      4                 4
#>  8 Denmark   Nati… Full-time  Permanent                      3                 3
#>  9 Switzerl… Local Full-time  Permanent                      5                 5
#> 10 Denmark   Nati… Full-time  Permanent                      2                 4
#> # ℹ 1,190 more rows
#> # ℹ 10 more variables: ethics_1 <dbl>, ethics_2 <dbl>, ethics_3 <dbl>,
#> #   ethics_4 <dbl>, work_experience <dbl>, trust_parliament <dbl>,
#> #   trust_government <dbl>, trust_parties <dbl>, trust_politicians <dbl>,
#> #   autonomy_emphasis_0to1 <dbl>
WoJ %>% minmax_scale(autonomy_emphasis, name = "my_scaled_variable",
change_to_min = 0, change_to_max = 1)
#> # A tibble: 1,200 × 16
#>    country   reach employment temp_contract autonomy_selection autonomy_emphasis
#>  * <fct>     <fct> <chr>      <fct>                      <dbl>             <dbl>
#>  1 Germany   Nati… Full-time  Permanent                      5                 4
#>  2 Germany   Nati… Full-time  Permanent                      3                 4
#>  3 Switzerl… Regi… Full-time  Permanent                      4                 4
#>  4 Switzerl… Local Part-time  Permanent                      4                 5
#>  5 Austria   Nati… Part-time  Permanent                      4                 4
#>  6 Switzerl… Local Freelancer NA                             4                 4
#>  7 Germany   Local Full-time  Permanent                      4                 4
#>  8 Denmark   Nati… Full-time  Permanent                      3                 3
#>  9 Switzerl… Local Full-time  Permanent                      5                 5
#> 10 Denmark   Nati… Full-time  Permanent                      2                 4
#> # ℹ 1,190 more rows
#> # ℹ 10 more variables: ethics_1 <dbl>, ethics_2 <dbl>, ethics_3 <dbl>,
#> #   ethics_4 <dbl>, work_experience <dbl>, trust_parliament <dbl>,
#> #   trust_government <dbl>, trust_parties <dbl>, trust_politicians <dbl>,
#> #   my_scaled_variable <dbl>
…
