…
We will again use sample data from the [Worlds of
Journalism](https://worldsofjournalism.org/) 2012-16 study for
demonstration purposes:

``` r

WoJ
#> # A tibble: 1,200 × 15
#>    country   reach employment temp_contract autonomy_selection autonomy_emphasis
#>    <fct>     <fct> <chr>      <fct>                      <dbl>             <dbl>
#>  1 Germany   Nati… Full-time  Permanent                      5                 4
#>  2 Germany   Nati… Full-time  Permanent                      3                 4
#>  3 Switzerl… Regi… Full-time  Permanent                      4                 4
#>  4 Switzerl… Local Part-time  Permanent                      4                 5
#>  5 Austria   Nati… Part-time  Permanent                      4                 4
#>  6 Switzerl… Local Freelancer NA                             4                 4
#>  7 Germany   Local Full-time  Permanent                      4                 4
#>  8 Denmark   Nati… Full-time  Permanent                      3                 3
#>  9 Switzerl… Local Full-time  Permanent                      5                 5
#> 10 Denmark   Nati… Full-time  Permanent                      2                 4
#> # ℹ 1,190 more rows
#> # ℹ 9 more variables: ethics_1 <dbl>, ethics_2 <dbl>, ethics_3 <dbl>,
#> #   ethics_4 <dbl>, work_experience <dbl>, trust_parliament <dbl>,
#> #   trust_government <dbl>, trust_parties <dbl>, trust_politicians <dbl>
```
…
If no variables passed, correlations for all combinations of numerical
variables will be computed:

``` r

WoJ %>% 
  correlate()
#> # A tibble: 55 × 6
#>    x                  y                        r    df         p     n
#>  * <chr>              <chr>                <dbl> <int>     <dbl> <int>
#>  1 autonomy_selection autonomy_emphasis  0.644    1192 4.83e-141  1194
#>  2 autonomy_selection ethics_1          -0.0766   1195 7.98e-  3  1197
#>  3 autonomy_selection ethics_2          -0.0274   1195 3.43e-  1  1197
#>  4 autonomy_selection ethics_3          -0.0257   1195 3.73e-  1  1197
#>  5 autonomy_selection ethics_4          -0.0781   1195 6.89e-  3  1197
#>  6 autonomy_selection work_experience    0.161    1182 2.71e-  8  1184
#>  7 autonomy_selection trust_parliament  -0.00840  1195 7.72e-  1  1197
#>  8 autonomy_selection trust_government   0.0414   1195 1.53e-  1  1197
#>  9 autonomy_selection trust_parties      0.0269   1195 3.52e-  1  1197
#> 10 autonomy_selection trust_politicians  0.0109   1195 7.07e-  1  1197
#> # ℹ 45 more rows
```
…
